src/sim/pe_test.vcd
$date
   Mon Mar 23 16:05:35 2026
$end
$version
  2022.2.2
$end
$timescale
  1ps
$end
$scope module tb_top $end
$var reg 1 ! clk $end
$var reg 1 " rst_n $end
$var reg 17 # activation_i [16:0] $end
$var reg 17 $ activation_o [16:0] $end
$var reg 17 % weight_i [16:0] $end
$var reg 35 & result_o [34:0] $end
$var reg 16 ' weight_addr [15:0] $end
$var reg 1 ( weight_we $end
$var reg 1 ) valid_i $end
$var reg 1 * start $end
$var reg 1 + acc_clear $end
$var reg 1 , valid_o $end
$scope module dut $end
$var wire 1 - clk $end
$var wire 1 . rst_n $end
$var wire 17 / activation_i [16:0] $end
$var reg 17 $ activation_o [16:0] $end
$var wire 1 0 weight_we $end
$var wire 16 1 weight_addr [15:0] $end
$var wire 17 2 weight_i [16:0] $end
$var wire 1 3 valid_i $end
$var wire 1 4 start $end
$var wire 1 5 acc_clear $end
$var reg 1 , valid_o $end
$var reg 35 & result_o [34:0] $end
$var reg 17 6 weight_rd_data [16:0] $end
$scope module ram_inst $end
$var wire 1 - clk $end
$var wire 1 7 cs $end
$var wire 1 0 we $end
$var wire 16 1 addr [15:0] $end
$var wire 17 2 wr_data [16:0] $end
$var reg 17 6 rd_data [16:0] $end
$scope begin Block40_1 $end
$var reg 32 8 i [31:0] $end
$upscope $end
$upscope $end
$scope module mac_inst $end
$var wire 1 - clk $end
$var wire 1 . rst_n $end
$var wire 17 / mac_a_i [16:0] $end
$var wire 17 9 mac_b_i [16:0] $end
$var wire 1 3 mac_valid_i $end
$var wire 1 4 mac_start $end
$var wire 1 5 mac_acc_clear $end
$var reg 1 , mac_valid_o $end
$var reg 35 & result [34:0] $end
$var reg 34 : product_o [33:0] $end
$var reg 3 ; valid_pipe [2:0] $end
$var reg 3 < start_pipe [2:0] $end
$var reg 3 = clear_pipe [2:0] $end
$var reg 1 > acc_valid_in $end
$var reg 1 ? acc_start $end
$var reg 1 @ acc_clear $end
$scope module mul_inst $end
$var wire 1 - clk $end
$var wire 1 . rst_n $end
$var wire 17 / a_i [16:0] $end
$var wire 17 9 b_i [16:0] $end
$var reg 34 : product [33:0] $end
$var reg 17 A a_reg [16:0] $end
$var reg 17 B b_reg [16:0] $end
$var reg 17 C c_reg [16:0] $end
$var reg 17 D d_reg [16:0] $end
$var reg 34 E mult_reg [33:0] $end
$var reg 34 F product_reg [33:0] $end
$upscope $end
$scope module accum_inst $end
$var wire 1 - clk $end
$var wire 1 . rst_n $end
$var wire 1 G clear $end
$var wire 1 H start $end
$var wire 1 I valid_i $end
$var wire 35 J accum_i [34:0] $end
$var reg 1 , valid_o $end
$var reg 35 & accum_o [34:0] $end
$var reg 35 K current_sum_o [34:0] $end
$var reg 35 L next_sum_o [34:0] $end
$var reg 35 M adder_b_i [34:0] $end
$scope module add $end
$var wire 35 J a_i [34:0] $end
$var wire 35 N b_i [34:0] $end
$var reg 35 L sum [34:0] $end
$upscope $end
$upscope $end
$upscope $end
$upscope $end
$scope task test_apply_reset $end
$upscope $end
$scope task test_load_inputs $end
$upscope $end
$scope task test_computing $end
$upscope $end
$upscope $end
$enddefinitions $end
#0
$dumpvars
0!
0"
b0 #
b0 $
b0 %
b0 &
b0 '
0(
0)
0*
0+
0,
0-
0.
b0 /
00
b0 1
b0 2
03
04
05
bx 6
17
b10000000000000000 8
bx 9
b0 :
b0 ;
b0 <
b0 =
0>
0?
0@
b0 A
b0 B
bx C
bx D
b0 E
b0 F
0G
0H
0I
b0 J
b0 K
b0 L
b0 M
b0 N
$end
#10000
1!
0,
1-
b0 6
b0 9
b0 ;
b0 <
b0 =
b0 A
b0 B
b0 E
b0 F
b0 K
#20000
0!
0-
#30000
1!
0,
1-
b0 6
b0 ;
b0 <
b0 =
b0 A
b0 B
b0 E
b0 F
b0 K
#40000
0!
0-
#50000
1!
0,
1-
b0 6
b0 ;
b0 <
b0 =
b0 A
b0 B
b0 E
b0 F
b0 K
#60000
0!
0-
#70000
1!
0,
1-
b0 6
b0 ;
b0 <
b0 =
b0 A
b0 B
b0 E
b0 F
b0 K
#80000
0!
0-
#90000
1!
0,
1-
b0 6
b0 ;
b0 <
b0 =
b0 A
b0 B
b0 E
b0 F
b0 K
#100000
0!
1"
0-
1.
#110000
1!
0,
1-
b0 6
b0 ;
b0 <
b0 =
b0 A
b0 B
b0 E
b0 F
#120000
0!
0-
#130000
1!
0,
1-
b0 6
b0 ;
b0 <
b0 =
b0 A
b0 B
b0 E
b0 F
#140000
0!
0-
#150000
1!
b10 %
b0 '
1(
0,
1-
10
b10 2
b0 6
b0 ;
b0 <
b0 =
b0 A
b0 B
b0 E
b0 F
#160000
0!
0-
#170000
1!
b11111111111111101 %
b1 '
0,
1-
b1 1
b11111111111111101 2
b0 6
b0 ;
b0 <
b0 =
b0 A
b0 B
b0 E
b0 F
#180000
0!
0-
#190000
1!
b101 %
b10 '
0,
1-
b10 1
b101 2
b0 6
b0 ;
b0 <
b0 =
b0 A
b0 B
b0 E
b0 F
#200000
0!
0-
#210000
1!
0(
0,
1-
00
b101 6
b101 9
b0 ;
b0 <
b0 =
b0 A
b0 B
b0 E
b0 F
#220000
0!
0-
#230000
1!
0,
1-
b101 6
b0 ;
b0 <
b0 =
b0 A
b101 B
b0 E
b0 F
#240000
0!
0-
#250000
1!
0,
1-
b101 6
b0 ;
b0 <
b0 =
b0 A
b101 B
b0 E
b0 F
#260000
0!
0-
#270000
1!
b0 '
0,
1-
b0 1
b10 6
b10 9
b0 ;
b0 <
b0 =
b0 A
b101 B
b0 E
b0 F
#280000
0!
0-
#290000
1!
b1010 #
b1 '
1)
1*
0,
1-
b1010 /
b1 1
13
14
b11111111111111101 6
b11111111111111101 9
b1 ;
b1 <
b0 =
b1010 A
b10 B
b0 E
b0 F
#300000
0!
0-
#310000
1!
b10100 #
b10 '
0*
0,
1-
b10100 /
b10 1
04
b101 6
b101 9
b11 ;
b10 <
b0 =
b10100 A
b11111111111111101 B
b10100 E
b0 F
#320000
0!
0-
#330000
1!
b11110 #
0,
1-
b11110 /
b101 6
b10100 :
b111 ;
b100 <
b0 =
1>
1?
b11110 A
b101 B
b1111111111111111111111111111000100 E
b10100 F
1H
1I
b10100 J
b10100 L
b0 M
#340000
0!
0-
#350000
1!
b0 #
b1010 $
b10100 &
0)
1,
1-
b0 /
03
b101 6
b1111111111111111111111111111000100 :
b110 ;
b0 <
b0 =
0?
b0 A
b101 B
b10010110 E
b1111111111111111111111111111000100 F
0H
b11111111111111111111111111111000100 J
b10100 K
b11111111111111111111111111111011000 L
b10100 M
b10100 N
#360000
0!
0-
#370000
1!
b10100 $
b11111111111111111111111111111011000 &
1,
1-
b101 6
b10010110 :
b100 ;
b0 <
b0 =
b0 A
b101 B
b0 E
b10010110 F
b10010110 J
b11111111111111111111111111111011000 K
b1101110 L
b11111111111111111111111111111011000 M
b11111111111111111111111111111011000 N
#380000
0!
0-
#390000
1!
b11110 $
b1101110 &
1,
1-
b101 6
b0 :
b0 ;
b0 <
b0 =
0>
b0 A
b101 B
b0 E
b0 F
0I
b0 J
b1101110 K
b1101110 L
b1101110 M
b1101110 N
#400000
0!
0-
#410000
1!
b0 $
0,
1-
b101 6
b0 ;
b0 <
b0 =
b0 A
b101 B
b0 E
b0 F
#420000
0!
0-
#430000
1!
0,
1-
b101 6
b0 ;
b0 <
b0 =
b0 A
b101 B
b0 E
b0 F
#440000
0!
0-
#450000
1!
0,
1-
b101 6
b0 ;
b0 <
b0 =
b0 A
b101 B
b0 E
b0 F
#460000
0!
0-
#470000
1!
0,
1-
b101 6
b0 ;
b0 <
b0 =
b0 A
b101 B
b0 E
b0 F
#480000
0!
0-
#490000
1!
0,
1-
b101 6
b0 ;
b0 <
b0 =
b0 A
b101 B
b0 E
b0 F
#500000
0!
0-
#510000
1!
0,
1-
b101 6
b0 ;
b0 <
b0 =
b0 A
b101 B
b0 E
b0 F
#520000
0!
0-
#530000
1!
0,
1-
b101 6
b0 ;
b0 <
b0 =
b0 A
b101 B
b0 E
b0 F
#540000
0!
0-
#550000
1!
0,
1-
b101 6
b0 ;
b0 <
b0 =
b0 A
b101 B
b0 E
b0 F
#560000
0!
0-
#570000
1!
0,
1-
b101 6
b0 ;
b0 <
b0 =
b0 A
b101 B
b0 E
b0 F
#580000
0!
0-
#590000
1!
0,
1-
b101 6
b0 ;
b0 <
b0 =
b0 A
b101 B
b0 E
b0 F
#600000
0!
0-
#610000
1!
0,
1-
b101 6
b0 ;
b0 <
b0 =
b0 A
b101 B
b0 E
b0 F
#620000
0!
0-
#630000
1!
0,
1-
b101 6
b0 ;
b0 <
b0 =
b0 A
b101 B
b0 E
b0 F
#640000
0!
0-
#650000
1!
0,
1-
b101 6
b0 ;
b0 <
b0 =
b0 A
b101 B
b0 E
b0 F
