src/sim/tb_top_ws_reg.vcd
$date
   Mon Mar 30 09:49:52 2026
$end

$version
  2025.2
  $dumpfile ("tb_top_ws_reg.vcd") 
$end

$timescale
  1ps
$end

$scope module tb $end
$var reg 1 ! clk $end
$var reg 1 " rst_n $end
$var reg 1 # valid_in $end
$var reg 1 $ start_in $end
$var reg 1 % clear_in $end
$scope module dut $end
$var wire 1 & clk $end
$var wire 1 ' rst_n $end
$var wire 1 ( valid_in $end
$var wire 1 ) start_in $end
$var wire 1 * clear_in $end
$scope module GEN_ROW[0].GEN_COL[0].pe_inst $end
$var wire 1 & clk $end
$var wire 1 ' rst_n $end
$var wire 17 + activation_i [33:17] $end
$var wire 1 ( valid_i $end
$var wire 17 , weight_i [33:17] $end
$var wire 1 - weight_load_i $end
$var wire 1 ) start_i $end
$var wire 1 * clear_i $end
$var reg 35 . result_o [139:105] $end
$var reg 1 / valid_o $end
$var reg 17 0 weight_o [67:51] $end
$var reg 17 1 weight_reg [16:0] $end
$scope module mac_inst $end
$var wire 1 & clk $end
$var wire 1 ' rst_n $end
$var wire 17 + mac_a_i [33:17] $end
$var wire 17 2 mac_b_i [16:0] $end
$var wire 1 ( mac_valid_i $end
$var wire 1 ) mac_start $end
$var wire 1 * mac_acc_clear $end
$var reg 1 / mac_valid_o $end
$var reg 35 . result [139:105] $end
$var reg 34 3 product_o [33:0] $end
$var reg 3 4 valid_pipe [2:0] $end
$var reg 3 5 start_pipe [2:0] $end
$var reg 3 6 clear_pipe [2:0] $end
$var reg 1 7 acc_valid_in $end
$var reg 1 8 acc_start $end
$var reg 1 9 acc_clear $end
$scope module mul_inst $end
$var wire 1 & clk $end
$var wire 1 ' rst_n $end
$var wire 17 + a_i [33:17] $end
$var wire 17 2 b_i [16:0] $end
$var reg 34 3 product [33:0] $end
$var reg 17 : a_reg [16:0] $end
$var reg 17 ; b_reg [16:0] $end
$var reg 17 < c_reg [16:0] $end
$var reg 17 = d_reg [16:0] $end
$var reg 34 > mult_reg [33:0] $end
$upscope $end
$scope module accum_inst $end
$var wire 1 & clk $end
$var wire 1 ' rst_n $end
$var wire 1 ? clear $end
$var wire 1 @ start $end
$var wire 1 A valid_i $end
$var wire 35 B accum_i [34:0] $end
$var reg 1 / valid_o $end
$var reg 35 . accum_o [139:105] $end
$var reg 35 C current_sum_o [34:0] $end
$var reg 35 D next_sum_o [34:0] $end
$var reg 35 E adder_b_i [34:0] $end
$var reg 1 F start_d $end
$var reg 1 G start_seq $end
$var reg 1 H start_pending $end
$scope module add $end
$var wire 35 B a_i [34:0] $end
$var wire 35 I b_i [34:0] $end
$var reg 35 D sum [34:0] $end
$upscope $end
$upscope $end
$upscope $end
$upscope $end
$scope module GEN_ROW[0].GEN_COL[1].pe_inst $end
$var wire 1 & clk $end
$var wire 1 ' rst_n $end
$var wire 17 + activation_i [33:17] $end
$var wire 1 ( valid_i $end
$var wire 17 J weight_i [16:0] $end
$var wire 1 K weight_load_i $end
$var wire 1 ) start_i $end
$var wire 1 * clear_i $end
$var reg 35 L result_o [104:70] $end
$var reg 1 M valid_o $end
$var reg 17 N weight_o [50:34] $end
$var reg 17 O weight_reg [16:0] $end
$scope module mac_inst $end
$var wire 1 & clk $end
$var wire 1 ' rst_n $end
$var wire 17 + mac_a_i [33:17] $end
$var wire 17 P mac_b_i [16:0] $end
$var wire 1 ( mac_valid_i $end
$var wire 1 ) mac_start $end
$var wire 1 * mac_acc_clear $end
$var reg 1 M mac_valid_o $end
$var reg 35 L result [104:70] $end
$var reg 34 Q product_o [33:0] $end
$var reg 3 R valid_pipe [2:0] $end
$var reg 3 S start_pipe [2:0] $end
$var reg 3 T clear_pipe [2:0] $end
$var reg 1 U acc_valid_in $end
$var reg 1 V acc_start $end
$var reg 1 W acc_clear $end
$scope module mul_inst $end
$var wire 1 & clk $end
$var wire 1 ' rst_n $end
$var wire 17 + a_i [33:17] $end
$var wire 17 P b_i [16:0] $end
$var reg 34 Q product [33:0] $end
$var reg 17 X a_reg [16:0] $end
$var reg 17 Y b_reg [16:0] $end
$var reg 17 Z c_reg [16:0] $end
$var reg 17 [ d_reg [16:0] $end
$var reg 34 \ mult_reg [33:0] $end
$upscope $end
$scope module accum_inst $end
$var wire 1 & clk $end
$var wire 1 ' rst_n $end
$var wire 1 ] clear $end
$var wire 1 ^ start $end
$var wire 1 _ valid_i $end
$var wire 35 ` accum_i [34:0] $end
$var reg 1 M valid_o $end
$var reg 35 L accum_o [104:70] $end
$var reg 35 a current_sum_o [34:0] $end
$var reg 35 b next_sum_o [34:0] $end
$var reg 35 c adder_b_i [34:0] $end
$var reg 1 d start_d $end
$var reg 1 e start_seq $end
$var reg 1 f start_pending $end
$scope module add $end
$var wire 35 ` a_i [34:0] $end
$var wire 35 g b_i [34:0] $end
$var reg 35 b sum [34:0] $end
$upscope $end
$upscope $end
$upscope $end
$upscope $end
$scope module GEN_ROW[1].GEN_COL[0].pe_inst $end
$var wire 1 & clk $end
$var wire 1 ' rst_n $end
$var wire 17 h activation_i [16:0] $end
$var wire 1 ( valid_i $end
$var wire 17 , weight_i [33:17] $end
$var wire 1 - weight_load_i $end
$var wire 1 ) start_i $end
$var wire 1 * clear_i $end
$var reg 35 i result_o [69:35] $end
$var reg 1 j valid_o $end
$var reg 17 k weight_o [33:17] $end
$var reg 17 l weight_reg [16:0] $end
$scope module mac_inst $end
$var wire 1 & clk $end
$var wire 1 ' rst_n $end
$var wire 17 h mac_a_i [16:0] $end
$var wire 17 m mac_b_i [16:0] $end
$var wire 1 ( mac_valid_i $end
$var wire 1 ) mac_start $end
$var wire 1 * mac_acc_clear $end
$var reg 1 j mac_valid_o $end
$var reg 35 i result [69:35] $end
$var reg 34 n product_o [33:0] $end
$var reg 3 o valid_pipe [2:0] $end
$var reg 3 p start_pipe [2:0] $end
$var reg 3 q clear_pipe [2:0] $end
$var reg 1 r acc_valid_in $end
$var reg 1 s acc_start $end
$var reg 1 t acc_clear $end
$scope module mul_inst $end
$var wire 1 & clk $end
$var wire 1 ' rst_n $end
$var wire 17 h a_i [16:0] $end
$var wire 17 m b_i [16:0] $end
$var reg 34 n product [33:0] $end
$var reg 17 u a_reg [16:0] $end
$var reg 17 v b_reg [16:0] $end
$var reg 17 w c_reg [16:0] $end
$var reg 17 x d_reg [16:0] $end
$var reg 34 y mult_reg [33:0] $end
$upscope $end
$scope module accum_inst $end
$var wire 1 & clk $end
$var wire 1 ' rst_n $end
$var wire 1 z clear $end
$var wire 1 { start $end
$var wire 1 | valid_i $end
$var wire 35 } accum_i [34:0] $end
$var reg 1 j valid_o $end
$var reg 35 i accum_o [69:35] $end
$var reg 35 ~ current_sum_o [34:0] $end
$var reg 35 !! next_sum_o [34:0] $end
$var reg 35 "! adder_b_i [34:0] $end
$var reg 1 #! start_d $end
$var reg 1 $! start_seq $end
$var reg 1 %! start_pending $end
$scope module add $end
$var wire 35 } a_i [34:0] $end
$var wire 35 &! b_i [34:0] $end
$var reg 35 !! sum [34:0] $end
$upscope $end
$upscope $end
$upscope $end
$upscope $end
$scope module GEN_ROW[1].GEN_COL[1].pe_inst $end
$var wire 1 & clk $end
$var wire 1 ' rst_n $end
$var wire 17 h activation_i [16:0] $end
$var wire 1 ( valid_i $end
$var wire 17 J weight_i [16:0] $end
$var wire 1 K weight_load_i $end
$var wire 1 ) start_i $end
$var wire 1 * clear_i $end
$var reg 35 '! result_o [34:0] $end
$var reg 1 (! valid_o $end
$var reg 17 )! weight_o [16:0] $end
$var reg 17 *! weight_reg [16:0] $end
$scope module mac_inst $end
$var wire 1 & clk $end
$var wire 1 ' rst_n $end
$var wire 17 h mac_a_i [16:0] $end
$var wire 17 +! mac_b_i [16:0] $end
$var wire 1 ( mac_valid_i $end
$var wire 1 ) mac_start $end
$var wire 1 * mac_acc_clear $end
$var reg 1 (! mac_valid_o $end
$var reg 35 '! result [34:0] $end
$var reg 34 ,! product_o [33:0] $end
$var reg 3 -! valid_pipe [2:0] $end
$var reg 3 .! start_pipe [2:0] $end
$var reg 3 /! clear_pipe [2:0] $end
$var reg 1 0! acc_valid_in $end
$var reg 1 1! acc_start $end
$var reg 1 2! acc_clear $end
$scope module mul_inst $end
$var wire 1 & clk $end
$var wire 1 ' rst_n $end
$var wire 17 h a_i [16:0] $end
$var wire 17 +! b_i [16:0] $end
$var reg 34 ,! product [33:0] $end
$var reg 17 3! a_reg [16:0] $end
$var reg 17 4! b_reg [16:0] $end
$var reg 17 5! c_reg [16:0] $end
$var reg 17 6! d_reg [16:0] $end
$var reg 34 7! mult_reg [33:0] $end
$upscope $end
$scope module accum_inst $end
$var wire 1 & clk $end
$var wire 1 ' rst_n $end
$var wire 1 8! clear $end
$var wire 1 9! start $end
$var wire 1 :! valid_i $end
$var wire 35 ;! accum_i [34:0] $end
$var reg 1 (! valid_o $end
$var reg 35 '! accum_o [34:0] $end
$var reg 35 <! current_sum_o [34:0] $end
$var reg 35 =! next_sum_o [34:0] $end
$var reg 35 >! adder_b_i [34:0] $end
$var reg 1 ?! start_d $end
$var reg 1 @! start_seq $end
$var reg 1 A! start_pending $end
$scope module add $end
$var wire 35 ;! a_i [34:0] $end
$var wire 35 B! b_i [34:0] $end
$var reg 35 =! sum [34:0] $end
$upscope $end
$upscope $end
$upscope $end
$upscope $end
$upscope $end
$scope begin Block148_20 $end
$var reg 32 C! r [31:0] $end
$scope begin Block149_21 $end
$var reg 32 D! c [31:0] $end
$upscope $end
$upscope $end
$scope begin Block162_23 $end
$var reg 32 E! r [31:0] $end
$scope begin Block163_24 $end
$var reg 32 F! c [31:0] $end
$upscope $end
$upscope $end
$scope task zero_inputs $end
$upscope $end
$scope task load_weight_step $end
$upscope $end
$scope task compute_step $end
$upscope $end
$upscope $end
$enddefinitions $end

#0
$dumpvars
0!
b0 !!
0"
b0 "!
0#
0#!
0$
0$!
0%
0%!
0&
b0 &!
0'
b0 '!
0(
0(!
0)
b0 )!
0*
b0 *!
b0 +
b0 +!
b0 ,
b0 ,!
0-
b0 -!
b0 .
b0 .!
0/
b0 /!
b0 0
00!
b0 1
01!
b0 2
02!
b0 3
b0 3!
b0 4
b0 4!
b0 5
b0 5!
b0 6
b0 6!
07
b0 7!
08
08!
09
09!
b0 :
0:!
b0 ;
b0 ;!
b0 <
b0 <!
b0 =
b0 =!
b0 >
b0 >!
0?
0?!
0@
0@!
0A
0A!
b0 B
b0 B!
b0 C
b0 C!
b0 D
b0 D!
b0 E
b0 E!
0F
b0 F!
0G
0H
b0 I
b0 J
0K
b0 L
0M
b0 N
b0 O
b0 P
b0 Q
b0 R
b0 S
b0 T
0U
0V
0W
b0 X
b0 Y
b0 Z
b0 [
b0 \
0]
0^
0_
b0 `
b0 a
b0 b
b0 c
0d
0e
0f
b0 g
b0 h
b0 i
0j
b0 k
b0 l
b0 m
b0 n
b0 o
b0 p
b0 q
0r
0s
0t
b0 u
b0 v
b0 w
b0 x
b0 y
0z
0{
0|
b0 }
b0 ~
$end

#5000
1!
1&
b10 E!
b10 F!

#10000
0!
0&

#15000
1!
1&
b10 E!
b10 F!

#20000
0!
0&

#25000
1!
1&
b10 E!
b10 F!

#30000
0!
0&

#35000
1!
1&
b10 E!
b10 F!

#40000
0!
0&

#45000
1!
1"
1&
1'
b10 E!
b10 F!

#50000
0!
0&

#55000
1!
1%
1&
1*
b10 E!
b10 F!

#60000
0!
0&

#65000
1!
0%
1&
0*
b1 /!
b1 6
b10 E!
b10 F!
b1 T
b1 q

#70000
0!
0&

#75000
1!
1&
b1 ,
1-
b10 /!
b10 6
b10 E!
b10 F!
b10 J
1K
b10 T
b10 q

#80000
0!
0&

#85000
1!
1&
b10 )!
b10 *!
b10 +!
0-
b100 /!
b1 0
b1 1
b1 2
12!
b100 6
18!
19
1?
b10 E!
b10 F!
0K
b10 N
b10 O
b10 P
b100 T
1W
1]
b1 k
b1 l
b1 m
b100 q
1t
1z

#90000
0!
0&

#95000
1!
1#
1$
1&
1(
1)
b1 +
b0 /!
02!
b10 4!
b0 6
08!
09
b1 ;
0?
b10 E!
b10 F!
b0 T
0W
b10 Y
0]
b10 h
b0 q
0t
b1 v
0z

#100000
0!
0&

#105000
1!
0#
0$
1&
0(
0)
b0 +
b1 -!
b1 .!
b10 3!
b1 4
b1 5
b10 6!
b1 :
b1 =
b10 E!
b10 F!
b1 R
b1 S
b1 X
b10 [
b0 h
b1 o
b1 p
b10 u
b1 x

#110000
0!
0&

#115000
1!
1&
b10 ,
1-
b10 -!
b10 .!
b0 3!
b10 4
b10 5
b10 5!
b0 :
b1 <
b10 E!
b10 F!
b1 J
1K
b10 R
b10 S
b0 X
b1 Z
b10 o
b10 p
b0 u
b10 w

#120000
0!
0&

#125000
1!
b10 !!
1$!
1&
b1 )!
b1 *!
b1 +!
b100 ,!
0-
b100 -!
b100 .!
b10 0
10!
b10 1
11!
b10 2
b1 3
b100 4
b100 5
b0 5!
17
b100 7!
18
19!
1:!
b100 ;!
b0 <
b100 =!
b1 >
1@
1@!
1A
b1 B
b1 D
b10 E!
b10 F!
1G
0K
b1 N
b1 O
b1 P
b10 Q
b100 R
b100 S
1U
1V
b0 Z
b10 \
1^
1_
b10 `
b10 b
1e
b10 k
b10 l
b10 m
b10 n
b100 o
b100 p
1r
1s
b0 w
b10 y
1{
1|
b10 }

#130000
0!
0&

#135000
1!
b10 "!
1#
1#!
0$!
1&
b10 &!
b100 '!
1(
1(!
b10 +
b0 ,!
b0 -!
b1 .
b0 .!
1/
00!
01!
b0 3
b0 4
b1 4!
b0 5
07
b0 7!
08
09!
0:!
b10 ;
b0 ;!
b100 <!
b0 >
b100 >!
1?!
0@
0@!
0A
b0 B
b100 B!
b1 C
b1 E
b10 E!
1F
b10 F!
0G
b1 I
b10 L
1M
b0 Q
b0 R
b0 S
0U
0V
b1 Y
b0 \
0^
0_
b0 `
b10 a
b10 c
1d
0e
b10 g
b1 h
b10 i
1j
b0 n
b0 o
b0 p
0r
0s
b10 v
b0 y
0{
0|
b0 }
b10 ~

#140000
0!
0&

#145000
1!
0#
0#!
1&
0(
b0 +
b1 -!
b1 3!
b1 4
b1 6!
b10 :
b10 =
0?!
b10 E!
0F
b10 F!
b1 R
b10 X
b1 [
0d
b0 h
b1 o
b1 u
b10 x

#150000
0!
0&

#155000
1!
1&
b10 -!
b0 3!
b10 4
b1 5!
b0 :
b10 <
b10 E!
b10 F!
b10 R
b0 X
b10 Z
b10 o
b0 u
b1 w

#160000
0!
0&

#165000
1!
b100 !!
1&
b1 ,!
b100 -!
10!
b100 3
b100 4
b0 5!
17
b1 7!
1:!
b1 ;!
b0 <
b101 =!
b100 >
1A
b100 B
b101 D
b10 E!
b10 F!
b10 Q
b100 R
1U
b0 Z
b10 \
1_
b10 `
b100 b
b10 n
b100 o
1r
b0 w
b10 y
1|
b10 }

#170000
0!
0&

#175000
1!
b100 "!
1&
b100 &!
b101 '!
b0 ,!
b0 -!
b101 .
00!
b0 3
b0 4
07
b0 7!
0:!
b0 ;!
b101 <!
b0 >
b101 >!
0A
b0 B
b101 B!
b101 C
b101 E
b10 E!
b10 F!
b101 I
b100 L
b0 Q
b0 R
0U
b0 \
0_
b0 `
b100 a
b100 c
b100 g
b100 i
b0 n
b0 o
0r
b0 y
0|
b0 }
b100 ~

#180000
0!
0&

#185000
1!
1&
b10 E!
b10 F!

#190000
0!
0&

#195000
1!
1&
b10 E!
b10 F!

#200000
0!
0&

#205000
1!
1&
b10 E!
b10 F!

#210000
0!
0&

#215000
1!
1&
b10 E!
b10 F!

#220000
0!
0&

#225000
1!
1&
b10 E!
b10 F!

#230000
0!
0&

#235000
1!
1&
b10 E!
b10 F!

#240000
0!
0&

#245000
1!
1&
b10 E!
b10 F!

#250000
0!
0&

#255000
1!
1&
b10 E!
b10 F!

#260000
0!
0&

#265000
1!
1&
b10 E!
b10 F!

#270000
0!
0&

#275000
1!
1&
b10 E!
b10 F!

#280000
0!
0&

#285000
1!
1&
b10 E!
b10 F!

#290000
0!
0&

#295000
1!
1&
b10 E!
b10 F!

#300000
0!
0&

#305000
1!
1&
b10 E!
b10 F!

#310000
0!
0&

#315000
1!
1&
b10 E!
b10 F!

#320000
0!
0&

#325000
1!
1&
b10 E!
b10 F!

#330000
0!
0&

#335000
1!
1&
b10 E!
b10 F!

#340000
0!
0&

#345000
1!
1&
b10 C!
b10 D!
